word,type,meaning,sample_sentence
school,,,
,n,โรงเรียน,I go to school at seven.
beam,,,
,n,ลำแสง,A beam of sunlight came through the clouds.
,n,คานรับน้ำหนัก,These beams will not carry the weight of the roof.
,v,ยิ้มกว้าง,Mary beamed her happiness.
test,,,
,n,การทดสอบ,"Yesterday the teacher said to us, ""I'll give you a test tomorrow."""
,v,ตรวจสอบ,Natasha liked to test her power over him.
course,,,
,n,ช่วงเวลา,"Over the course of history, the division of labor has increased human productivity immensely."
,n,เส้นทาง,Its course down the cliff was marked by the cracking of limbs.
,n,หลักสูตร,Which course do you recommend?
computer,,,
,n,คณิตกร,Do you know to use a personal computer?
,n,ผู้คำนวณ,"""Just using the old gent's computer,"" he mumbled."
notebook,,,
,n,สมุด,Please show me your notebook.
,n,เครื่องคอมพิวเตอร์ขนาดเล็กสำหรับหิ้วไปที่ต่างๆ ได้,"Deidre, the notebook on top of my desk."
tennis,,,
,n,เทนนิส,Soccer is more popular than tennis.
fish,,,
,n,ปลา,They sell live fish at the fish store.
banana,,,
,n,กล้วย,The child was feeding the monkey with the banana.
telephone,,,
,n,โทรศัพท์,May I use this telephone?
,v,คุยหรือพูดกันทางโทรศัพท์,The man who telephoned an hour ago was Frank.
area,,,
,n,บริเวณ,Don't go into that area.
,n,พื้นที่,The area of Canada is greater than that of the United States.
brother,,,
,n,พี่ชายหรือน้องชาย,that boy over there will be Tom's brother.
love,,,
,v,รัก ,"She winked at me, as much as to say, I love you."
plane,,,
,n,เครื่องบิน,She died in a plane crash.
